gdverse | Geodetector Models In R • gdverse
…
gd(fvc ~ .,data = new.fvc,type = 'interaction')
## $interaction
## # A tibble: 66 × 6
##    variable1 variable2 Interaction Variable1 Q-statisti…¹ Variable2 Q-statisti…²
##    <chr>     <chr>     <chr>                        <dbl>                  <dbl>
##  1 lulc      aspect    Enhance, n…                  0.553                0.00741
##  2 lulc      elev      Enhance, b…                  0.553                0.209  
##  3 lulc      ntl       Enhance, n…                  0.553                0.0216 
##  4 lulc      pop       Enhance, b…                  0.553                0.186  
##  5 lulc      premax    Enhance, b…                  0.553                0.134  
##  6 lulc      premin    Enhance, b…                  0.553                0.441  
##  7 lulc      presum    Enhance, b…                  0.553                0.642  
##  8 lulc      slope     Enhance, b…                  0.553                0.194  
##  9 lulc      tmpavg    Enhance, b…                  0.553                0.197  
## 10 lulc      tmpmax    Enhance, b…                  0.553                0.228  
## # ℹ 56 more rows
## # ℹ abbreviated names: ¹​`Variable1 Q-statistics`, ²​`Variable2 Q-statistics`
## # ℹ 1 more variable: `Variable1 and Variable2 interact Q-statistics` <dbl>
## 
## attr(,"class")
## [1] "interaction_detector"
…
