…
``` r
g
## $x
##  [1] "aspect" "elev"   "ntl"    "pop"    "premax" "premin" "presum" "slope"  "tmpavg"
## [10] "tmpmax" "tmpmin"
## 
## $k
##  [1] 15 15 15 15 13 14 15 15 15 15 15
## 
## $method
##  [1] "equal"    "quantile" "fisher"   "quantile" "fisher"   "fisher"   "fisher"  
##  [8] "fisher"   "quantile" "quantile" "fisher"  
## 
## $disv
## # A tibble: 136,243 × 11
##    aspect  elev   ntl   pop premax premin presum slope tmpavg tmpmax tmpmin
##     <int> <int> <int> <int>  <int>  <int>  <int> <int>  <int>  <int>  <int>
##  1      8    12     3     1      6      2      1     4      4      8      3
##  2      8    12     2     1      5      1      1     6      4      8      3
##  3      6    12     2     1      5      1      1     6      4      9      3
##  4      5    12     2     1      5      1      1     5      5     10      3
##  5      5    13     3     4      6      2      1     3      4      8      3
##  6      5    12     3     3      6      2      1     5      4      8      3
##  7      6    12     2     1      5      1      1     7      4      9      3
##  8      7    12     2     1      5      1      1     6      5     10      3
##  9      8    12     2     1      5      1      1     3      5     10      3
## 10      7    12     3     1      5      1      1     5      5     10      3
## # ℹ 136,233 more rows
```

``` r
new.fvc = g$disv
new.fvc
## # A tibble: 136,243 × 11
##    aspect  elev   ntl   pop premax premin presum slope tmpavg tmpmax tmpmin
##     <int> <int> <int> <int>  <int>  <int>  <int> <int>  <int>  <int>  <int>
##  1      8    12     3     1      6      2      1     4      4      8      3
##  2      8    12     2     1      5      1      1     6      4      8      3
##  3      6    12     2     1      5      1      1     6      4      9      3
##  4      5    12     2     1      5      1      1     5      5     10      3
##  5      5    13     3     4      6      2      1     3      4      8      3
##  6      5    12     3     3      6      2      1     5      4      8      3
##  7      6    12     2     1      5      1      1     7      4      9      3
##  8      7    12     2     1      5      1      1     6      5     10      3
##  9      8    12     2     1      5      1      1     3      5     10      3
## 10      7    12     3     1      5      1      1     5      5     10      3
## # ℹ 136,233 more rows
```

The `new.fvc`  is the discrete result of the optimal discretization parameter based on the Q statistic of the geographic detector,we can combine it with `fvc` and `lulc` col in `fvc` tibble now.


``` r
new.fvc = bind_cols(select(fvc,fvc,lulc),new.fvc)
new.fvc
## # A tibble: 136,243 × 13
##      fvc  lulc aspect  elev   ntl   pop premax premin presum slope tmpavg tmpmax tmpmin
##    <dbl> <dbl>  <int> <int> <int> <int>  <int>  <int>  <int> <int>  <int>  <int>  <int>
##  1 0.198    10      8    12     3     1      6      2      1     4      4      8      3
##  2 0.193    10      8    12     2     1      5      1      1     6      4      8      3
##  3 0.192    10      6    12     2     1      5      1      1     6      4      9      3
##  4 0.189    10      5    12     2     1      5      1      1     5      5     10      3
##  5 0.208    10      5    13     3     4      6      2      1     3      4      8      3
##  6 0.196    10      5    12     3     3      6      2      1     5      4      8      3
##  7 0.191    10      6    12     2     1      5      1      1     7      4      9      3
##  8 0.185    10      7    12     2     1      5      1      1     6      5     10      3
##  9 0.174    10      8    12     2     1      5      1      1     3      5     10      3
## 10 0.166    10      7    12     3     1      5      1      1     5      5     10      3
## # ℹ 136,233 more rows
```
…
``` r
gd(fvc ~ .,data = new.fvc,type = 'interaction')
## $interaction
## # A tibble: 66 × 6
##    variable1 variable2 Interaction        `Variable1 Q-statistics` Variable2 Q-statistic…¹
##    <chr>     <chr>     <chr>                                 <dbl>                   <dbl>
##  1 lulc      aspect    Enhance, nonlinear                    0.553                 0.00741
##  2 lulc      elev      Enhance, bi-                          0.553                 0.209  
##  3 lulc      ntl       Enhance, nonlinear                    0.553                 0.0216 
##  4 lulc      pop       Enhance, bi-                          0.553                 0.186  
##  5 lulc      premax    Enhance, bi-                          0.553                 0.133  
##  6 lulc      premin    Enhance, bi-                          0.553                 0.443  
##  7 lulc      presum    Enhance, bi-                          0.553                 0.641  
##  8 lulc      slope     Enhance, bi-                          0.553                 0.193  
##  9 lulc      tmpavg    Enhance, bi-                          0.553                 0.197  
## 10 lulc      tmpmax    Enhance, bi-                          0.553                 0.228  
## # ℹ 56 more rows
## # ℹ abbreviated name: ¹​`Variable2 Q-statistics`
## # ℹ 1 more variable: `Variable1 and Variable2 interact Q-statistics` <dbl>
## 
## attr(,"class")
## [1] "interaction_detector"
```
