…
``` r
library(sf)
library(tidyverse)
library(magrittr)
library(gdverse)

suhii = read_sf(system.file('extdata/SUHII.gpkg',package = 'gdverse'))
suhii
## Simple feature collection with 1128 features and 9 fields
## Geometry type: POLYGON
## Dimension:     XY
## Bounding box:  xmin: 295713 ymin: 3784915 xmax: 324202.2 ymax: 3804678
## Projected CRS: WGS 84 / UTM zone 49N
## # A tibble: 1,128 × 10
##     SUHII    BH    BD   SVF   FAR     RD  ELEV  NDVI   NDWI                              geom
##     <dbl> <dbl> <dbl> <dbl> <dbl>  <dbl> <dbl> <dbl>  <dbl>                     <POLYGON [m]>
##  1 -0.633 0      1.00 0.995 0     0.0713  405. 0.445 -0.431 ((298066.3 3787032, 298062.5 378…
##  2  1.61  3.16   1.00 0.993 1.20  0.0182  403. 0.497 -0.484 ((297871.4 3787333, 297864.8 378…
##  3  1.13  0      1    0.986 0     0.0752  402. 0.419 -0.409 ((297538.7 3788005, 297537.9 378…
##  4  2.01  1.47   1    0.995 0.500 0.0784  404. 0.449 -0.433 ((297484.2 3788219, 297482.8 378…
##  5  0.452 0.310  1    0.996 0.121 0.0825  403. 0.514 -0.488 ((297398.6 3788768, 297397.5 378…
##  6  3.00  3.99   1.00 0.994 1.51  0.0207  400. 0.365 -0.378 ((297391.4 3789405, 297391 37894…
##  7  1.69  0      1    0.998 0     0.152   403. 0.267 -0.286 ((297253 3790673, 297250.8 37906…
##  8  4.07  4.63   1.00 0.991 1.74  0.0235  398. 0.395 -0.400 ((297244.1 3790712, 297240.4 379…
##  9  1.23  0      1    0.996 0     0.0875  400. 0.258 -0.268 ((297126.1 3791147, 297120.1 379…
## 10  3.87  4.07   1.00 0.993 1.60  0.0271  399. 0.354 -0.370 ((296806.9 3791969, 296806.7 379…
## # ℹ 1,118 more rows
```
…
suhii |>
  dplyr::filter(!if_any(everything(),is.na)) |>
  mutate(nb = sfdep::st_contiguity(geom),
         wt = sfdep::st_weights(nb)) |>
  dplyr::select(SUHII,nb,wt) -> new_suhii

new_suhii
## Simple feature collection with 1128 features and 3 fields
## Geometry type: POLYGON
## Dimension:     XY
## Bounding box:  xmin: 295713 ymin: 3784915 xmax: 324202.2 ymax: 3804678
## Projected CRS: WGS 84 / UTM zone 49N
## # A tibble: 1,128 × 4
##     SUHII nb         wt                                                                  geom
##     <dbl> <nb>       <list>                                                     <POLYGON [m]>
##  1 -0.633 <int [1]>  <dbl [1]>  ((298066.3 3787032, 298062.5 3787036, 298060.9 3787038, 2980…
##  2  1.61  <int [16]> <dbl [16]> ((297871.4 3787333, 297864.8 3787343, 297852.8 3787362, 2978…
##  3  1.13  <int [1]>  <dbl [1]>  ((297538.7 3788005, 297537.9 3788007, 297529.6 3788030, 2975…
##  4  2.01  <int [1]>  <dbl [1]>  ((297484.2 3788219, 297482.8 3788226, 297477.4 3788250, 2974…
##  5  0.452 <int [2]>  <dbl [2]>  ((297398.6 3788768, 297397.5 3788779, 297395.2 3788804, 2973…
##  6  3.00  <int [10]> <dbl [10]> ((297391.4 3789405, 297391 3789429, 297390.5 3789454, 297390…
##  7  1.69  <int [2]>  <dbl [2]>  ((297253 3790673, 297250.8 3790683, 297245.6 3790706, 297244…
##  8  4.07  <int [6]>  <dbl [6]>  ((297244.1 3790712, 297240.4 3790729, 297235 3790751, 297229…
##  9  1.23  <int [2]>  <dbl [2]>  ((297126.1 3791147, 297120.1 3791164, 297112.1 3791187, 2971…
## 10  3.87  <int [8]>  <dbl [8]>  ((296806.9 3791969, 296806.7 3791970, 296797.7 3791990, 2967…
## # ℹ 1,118 more rows
…
