…
boston = spData::boston.c %>%
  as_tibble() %>%
  select(CMEDV,CRIM,RM,DIS,RAD,PTRATIO,LON,LAT) %>%
  st_as_sf(coords = c('LON','LAT'), crs = 4326)
boston
## Simple feature collection with 506 features and 6 fields
## Geometry type: POINT
## Dimension:     XY
## Bounding box:  xmin: -71.2895 ymin: 42.03 xmax: -70.81 ymax: 42.381
## Geodetic CRS:  WGS 84
## # A tibble: 506 × 7
##    CMEDV    CRIM    RM   DIS   RAD PTRATIO          geometry
##  * <dbl>   <dbl> <dbl> <dbl> <int>   <dbl>       <POINT [°]>
##  1  24   0.00632  6.58  4.09     1    15.3  (-70.955 42.255)
##  2  21.6 0.0273   6.42  4.97     2    17.8  (-70.95 42.2875)
##  3  34.7 0.0273   7.18  4.97     2    17.8  (-70.936 42.283)
##  4  33.4 0.0324   7.00  6.06     3    18.7  (-70.928 42.293)
##  5  36.2 0.0690   7.15  6.06     3    18.7  (-70.922 42.298)
##  6  28.7 0.0298   6.43  6.06     3    18.7 (-70.9165 42.304)
##  7  22.9 0.0883   6.01  5.56     5    15.2  (-70.936 42.297)
##  8  22.1 0.145    6.17  5.95     5    15.2  (-70.9375 42.31)
##  9  16.5 0.211    5.63  6.08     5    15.2  (-70.933 42.312)
## 10  18.9 0.170    6.00  6.59     5    15.2  (-70.929 42.316)
## # ℹ 496 more rows
```
…
