optimal spatial data discretization based on SPADE q-statistics — cpsd_disc • gdverse
…
data('sim')
wt = sdsfun::inverse_distance_swm(sf::st_as_sf(sim,coords = c('lo','la')))
cpsd_disc(y ~ xa + xb + xc, data = sim, wt = wt)
#> $x
#> [1] "xa" "xb" "xc"
#> 
#> $k
#> [1] 5 5 7
#> 
#> $method
#> [1] "quantile" "quantile" "quantile"
#> 
#> $disv
#> # A tibble: 80 × 3
#>       xa    xb    xc
#>    <int> <int> <int>
#>  1     1     4     3
#>  2     4     4     6
#>  3     2     5     3
#>  4     1     3     2
#>  5     4     4     5
#>  6     2     4     4
#>  7     4     4     6
#>  8     1     2     2
#>  9     4     3     4
#> 10     5     1     6
#> # ℹ 70 more rows
…
