…
              discnum = 3:6)
#> $x
#> [1] "xa" "xb" "xc"
#> 
#> $k
#> [1] 6 6 6
#> 
#> $method
#> [1] "geometric" "geometric" "geometric"
#> 
#> $qstatistic
#> [1] 0.3267163 0.4800064 0.6225785
#> 
#> $disc
#> # A tibble: 80 × 3
#>       xa    xb    xc
#>    <int> <int> <int>
#>  1     2     5     4
#>  2     5     5     5
#>  3     3     5     4
#>  4     3     4     3
#>  5     5     5     5
#>  6     4     5     4
#>  7     5     5     5
#>  8     2     3     2
#>  9     5     4     4
#> 10     6     3     5
#> # ℹ 70 more rows
…
