Interactive Detector For Spatial Associations(IDSA) • gdverse
…
Load data and package

library(sf)
library(gdverse)
library(magrittr)
library(tidyverse)
usfi = read_sf(system.file('extdata/USFI_Xian.gpkg',package = 'gdverse'))
usfi
## Simple feature collection with 1037 features and 19 fields
## Geometry type: POLYGON
## Dimension:     XY
## Bounding box:  xmin: 295713 ymin: 3784916 xmax: 324202.2 ymax: 3804669
## Projected CRS: WGS 84 / UTM zone 49N
## # A tibble: 1,037 × 20
##      LPI   LSI   GAR    DAR      WAR   TER  NDVI   NDWI   DTH   DTP    DTR   DTW
##    <dbl> <dbl> <dbl>  <dbl>    <dbl> <dbl> <dbl>  <dbl> <dbl> <dbl>  <dbl> <dbl>
##  1  57.2 10.5  0.630 0.273  0.00219  0.979 0.497 -0.356  5.66 1.08  0.934   1.16
##  2  85.7  2.35 0.905 0.0952 0        0.977 0.514 -0.288  5.66 1.41  0.0807  1.57
##  3  41.2  7.85 0.436 0.449  0.000672 0.972 0.365 -0.296  4.38 1.88  0.516   2.37
##  4  39.1  5.40 0.534 0.377  0        0.966 0.395 -0.299  4.25 1.97  0.442   2.81
##  5  32.0  8.04 0.405 0.437  0        0.968 0.354 -0.302  3.65 1.34  0.615   2.55
##  6  58.3  7.91 0.332 0.615  0.000377 0.966 0.312 -0.271  3.69 0.700 0.592   2.25
##  7  98.4  3.34 0.984 0.0161 0        0.948 0.451 -0.248  5.39 1.36  0.124   3.64
##  8  44.6 17.6  0.416 0.502  0.000672 0.949 0.365 -0.295  5.11 1.20  0.926   2.50
##  9  35.9  9.81 0.464 0.467  0.00134  0.936 0.379 -0.309  7.10 2.01  1.03    2.75
## 10  44.3  9.49 0.403 0.504  0.000547 0.926 0.310 -0.278  8.51 2.68  0.658   3.20
## # ℹ 1,027 more rows
## # ℹ 8 more variables: BH <dbl>, BD <dbl>, RL <dbl>, RFD <dbl>, SVF <dbl>,
## #   FAR <dbl>, SUHI <dbl>, geom <POLYGON [m]>
…
