Interactive Detector For Spatial Associations(IDSA) • gdverse
…
library(sf)
library(tidyverse)
library(gdverse)

depression = system.file('extdata/Depression.csv',package = 'gdverse') %>%
  read_csv() %>%
  st_as_sf(coords = c('X','Y'), crs = 4326)
depression
## Simple feature collection with 1072 features and 11 fields
## Geometry type: POINT
## Dimension:     XY
## Bounding box:  xmin: -83.1795 ymin: 32.11464 xmax: -78.6023 ymax: 35.17354
## Geodetic CRS:  WGS 84
## # A tibble: 1,072 × 12
##    Depression_prevelence PopulationDensity Population65 NoHealthInsurance
##  *                 <dbl>             <dbl>        <dbl>             <dbl>
##  1                  23.1              61.5         22.5              7.98
##  2                  22.8              58.3         16.8             11.0 
##  3                  23.2              35.9         24.5              9.31
##  4                  21.8              76.1         21.8             13.2 
##  5                  20.7              47.3         22.0             11   
##  6                  21.3              32.5         19.2             13.0 
##  7                  22                36.9         19.2             10.8 
##  8                  21.2              61.5         15.9              8.57
##  9                  22.7              67.2         15.7             17.8 
## 10                  20.6             254.          11.3             12.7 
## # ℹ 1,062 more rows
## # ℹ 8 more variables: Neighbor_Disadvantage <dbl>, Beer <dbl>, MentalHealthPati <dbl>,
## #   NatureParks <dbl>, Casinos <dbl>, DrinkingPlaces <dbl>, X.HouseRent <dbl>,
## #   geometry <POINT [°]>
…
