Optimal Parameters-based Geographical Detector(OPGD) • gdverse
…
g
## $x
##  [1] "aspect" "elev"   "ntl"    "pop"    "premax" "premin" "presum" "slope"  "tmpavg" "tmpmax"
## [11] "tmpmin"
## 
## $k
##  [1] 13 15 15 15 15 15 15 15 10 15 15
## 
## $method
##  [1] "pretty"   "fisher"   "fisher"   "quantile" "fisher"   "fisher"   "fisher"   "fisher"  
##  [9] "sd"       "quantile" "fisher"  
## 
## $disv
## # A tibble: 5,240 × 11
##    aspect  elev   ntl   pop premax premin presum slope tmpavg tmpmax tmpmin
##     <int> <int> <int> <int>  <int>  <int>  <int> <int>  <int>  <int>  <int>
##  1      7     9     3     2      7      1      1     5      8      9      2
##  2      9     8     3     5      7      1      1     3      8     11      2
##  3     10     9     3     2      7      1      1     5      8      9      2
##  4     11     9     2     2      8      1      1     5      7      7      2
##  5      7     9     4     1      7      2      1     4      8      9      2
##  6      7     8     3     1      7      1      1     3      8     11      3
##  7      7     8     3     3      6      1      1     2      8     11      3
##  8     11     8     3     2      7      1      1     3      8     11      3
##  9      9     9     4     7      7      1      1     5      8      9      2
## 10     11     8     3     3      7      1      1     4      8     10      2
## # ℹ 5,230 more rows
new.fvc = g$disv
new.fvc
## # A tibble: 5,240 × 11
##    aspect  elev   ntl   pop premax premin presum slope tmpavg tmpmax tmpmin
##     <int> <int> <int> <int>  <int>  <int>  <int> <int>  <int>  <int>  <int>
##  1      7     9     3     2      7      1      1     5      8      9      2
##  2      9     8     3     5      7      1      1     3      8     11      2
##  3     10     9     3     2      7      1      1     5      8      9      2
##  4     11     9     2     2      8      1      1     5      7      7      2
##  5      7     9     4     1      7      2      1     4      8      9      2
##  6      7     8     3     1      7      1      1     3      8     11      3
##  7      7     8     3     3      6      1      1     2      8     11      3
##  8     11     8     3     2      7      1      1     3      8     11      3
##  9      9     9     4     7      7      1      1     5      8      9      2
## 10     11     8     3     3      7      1      1     4      8     10      2
## # ℹ 5,230 more rows

The new.fvc is the discrete result of the optimal
discretization parameter based on the Q statistic of the geographic
detector,we can combine it with fvc and lulc
col in fvc tibble now.

new.fvc = bind_cols(select(fvc,fvc,lulc),new.fvc)
new.fvc
## # A tibble: 5,240 × 13
##      fvc  lulc aspect  elev   ntl   pop premax premin presum slope tmpavg tmpmax tmpmin
##    <dbl> <dbl>  <int> <int> <int> <int>  <int>  <int>  <int> <int>  <int>  <int>  <int>
##  1 0.188    10      7     9     3     2      7      1      1     5      8      9      2
##  2 0.162    10      9     8     3     5      7      1      1     3      8     11      2
##  3 0.168    10     10     9     3     2      7      1      1     5      8      9      2
##  4 0.186    10     11     9     2     2      8      1      1     5      7      7      2
##  5 0.189    10      7     9     4     1      7      2      1     4      8      9      2
##  6 0.171    10      7     8     3     1      7      1      1     3      8     11      3
##  7 0.153    10      7     8     3     3      6      1      1     2      8     11      3
##  8 0.163    10     11     8     3     2      7      1      1     3      8     11      3
##  9 0.176    10      9     9     4     7      7      1      1     5      8      9      2
## 10 0.177    10     11     8     3     3      7      1      1     4      8     10      2
## # ℹ 5,230 more rows
…
