…
g
## $x
## [1] "GDP"           "Popdensity"    "Precipitation" "Tempchange"   
## 
## $k
## [1] 15 15 14 14
## 
## $method
## [1] "quantile" "quantile" "natural"  "equal"   
## 
## $qstatistic
## [1] 0.1096213 0.2100134 0.8809405 0.3478433
## 
## $disc
## # A tibble: 713 × 4
##      GDP Popdensity Precipitation Tempchange
##    <int>      <int>         <int>      <int>
##  1     8          6             5          3
##  2     6          4             4          3
##  3     8         11            10          3
##  4     1          1             4          4
##  5     1          2             4          3
##  6     1          4             4          3
##  7     8          6             4          3
##  8     9          9             5          3
##  9    12         12             7          3
## 10     9         10             8          3
## # ℹ 703 more rows
new.ndvi = g$disc
new.ndvi
## # A tibble: 713 × 4
##      GDP Popdensity Precipitation Tempchange
##    <int>      <int>         <int>      <int>
##  1     8          6             5          3
##  2     6          4             4          3
##  3     8         11            10          3
##  4     1          1             4          4
##  5     1          2             4          3
##  6     1          4             4          3
##  7     8          6             4          3
##  8     9          9             5          3
##  9    12         12             7          3
## 10     9         10             8          3
## # ℹ 703 more rows
```

The `new.ndvi` is the discreted result of the optimal discretization
parameter based on the Q statistic of the geographical detector (factor
detector), we can combine it with other columns in `ndvi` tibble now.

``` r
new.ndvi = dplyr::bind_cols(dplyr::select(ndvi,NDVIchange,Climatezone,Mining),new.ndvi)
new.ndvi
## # A tibble: 713 × 7
##    NDVIchange Climatezone Mining   GDP Popdensity Precipitation Tempchange
##         <dbl> <chr>       <fct>  <int>      <int>         <int>      <int>
##  1    0.116   Bwk         low        8          6             5          3
##  2    0.0178  Bwk         low        6          4             4          3
##  3    0.138   Bsk         low        8         11            10          3
##  4    0.00439 Bwk         low        1          1             4          4
##  5    0.00316 Bwk         low        1          2             4          3
##  6    0.00838 Bwk         low        1          4             4          3
##  7    0.0335  Bwk         low        8          6             4          3
##  8    0.0387  Bwk         low        9          9             5          3
##  9    0.0882  Bsk         low       12         12             7          3
## 10    0.0690  Bsk         low        9         10             8          3
## # ℹ 703 more rows
```
…
