Robust Geographical Detector(RGD) • gdverse
…
Determine discretization use offline change point detection

Only lulc is a discrete category variable in the
fvc data, we need to discretize others. We can use
robust_disc() to discretize them based on offline change
point detection.

tictoc::tic()
new.fvc = robust_disc(fvc ~ .,data = select(fvc,-lulc),discnum = 15,cores = 6)
tictoc::toc()
## 2786 sec elapsed

new.fvc
## # A tibble: 5,240 × 11
##    premax  premin presum tmpmax tmpmin tmpavg pop     ntl     elev    slope   aspect 
##    <chr>   <chr>  <chr>  <chr>  <chr>  <chr>  <chr>   <chr>   <chr>   <chr>   <chr>  
##  1 group10 group1 group1 group8 group4 group5 group7  group14 group13 group10 group4 
##  2 group10 group1 group1 group9 group4 group7 group10 group14 group11 group10 group14
##  3 group11 group1 group1 group8 group4 group5 group8  group14 group13 group10 group14
##  4 group13 group1 group1 group8 group2 group4 group7  group14 group13 group11 group14
##  5 group10 group1 group1 group8 group4 group5 group1  group14 group13 group10 group7 
##  6 group10 group1 group1 group9 group4 group5 group2  group14 group11 group10 group7 
##  7 group10 group1 group1 group9 group4 group7 group8  group14 group9  group6  group4 
##  8 group10 group1 group1 group9 group4 group7 group8  group14 group9  group10 group14
##  9 group10 group1 group1 group8 group4 group5 group10 group14 group13 group10 group14
## 10 group11 group1 group1 group8 group4 group5 group9  group14 group9  group10 group14
## # ℹ 5,230 more rows

The new.fvc is the discrete result,we can combine it
with fvc and lulc col in fvc
tibble now.

new.fvc = bind_cols(select(fvc,fvc,lulc),new.fvc)
new.fvc
## # A tibble: 5,240 × 13
##      fvc  lulc premax  premin presum tmpmax tmpmin tmpavg pop     ntl     elev    slope  aspect
##    <dbl> <dbl> <chr>   <chr>  <chr>  <chr>  <chr>  <chr>  <chr>   <chr>   <chr>   <chr>  <chr> 
##  1 0.188    10 group10 group1 group1 group8 group4 group5 group7  group14 group13 group… group4
##  2 0.162    10 group10 group1 group1 group9 group4 group7 group10 group14 group11 group… group…
##  3 0.168    10 group11 group1 group1 group8 group4 group5 group8  group14 group13 group… group…
##  4 0.186    10 group13 group1 group1 group8 group2 group4 group7  group14 group13 group… group…
##  5 0.189    10 group10 group1 group1 group8 group4 group5 group1  group14 group13 group… group7
##  6 0.171    10 group10 group1 group1 group9 group4 group5 group2  group14 group11 group… group7
##  7 0.153    10 group10 group1 group1 group9 group4 group7 group8  group14 group9  group6 group4
##  8 0.163    10 group10 group1 group1 group9 group4 group7 group8  group14 group9  group… group…
##  9 0.176    10 group10 group1 group1 group8 group4 group5 group10 group14 group13 group… group…
## 10 0.177    10 group11 group1 group1 group8 group4 group5 group9  group14 group9  group… group…
## # ℹ 5,230 more rows
…
