Robust Geographical Detector & Robust Interaction Detector(RGD & RID) • gdverse
…
tictoc::tic()
new.ndvi = robust_disc(NDVIchange ~ .,
                       data = select(ndvi,-c(Climatezone,Mining)),
                       discnum = 10,cores = 6)
tictoc::toc()
## 20.31 sec elapsed

new.ndvi
## # A tibble: 713 × 4
##    Tempchange Precipitation GDP     Popdensity
##    <chr>      <chr>         <chr>   <chr>     
##  1 group1     group5        group7  group6    
##  2 group1     group5        group7  group4    
##  3 group1     group9        group8  group10   
##  4 group1     group5        group1  group3    
##  5 group1     group3        group1  group3    
##  6 group1     group3        group1  group4    
##  7 group1     group5        group7  group6    
##  8 group1     group5        group8  group10   
##  9 group1     group7        group10 group10   
## 10 group1     group7        group9  group10   
## # ℹ 703 more rows

The new.ndvi is the discrete result,we can combine it
with NDVIchange,Climatezone and
Mining cols in ndvi tibble now.

new.ndvi = bind_cols(select(ndvi,c(NDVIchange,Climatezone,Mining)),new.ndvi)
new.ndvi
## # A tibble: 713 × 7
##    NDVIchange Climatezone Mining Tempchange Precipitation GDP     Popdensity
##         <dbl> <chr>       <fct>  <chr>      <chr>         <chr>   <chr>     
##  1    0.116   Bwk         low    group1     group5        group7  group6    
##  2    0.0178  Bwk         low    group1     group5        group7  group4    
##  3    0.138   Bsk         low    group1     group9        group8  group10   
##  4    0.00439 Bwk         low    group1     group5        group1  group3    
##  5    0.00316 Bwk         low    group1     group3        group1  group3    
##  6    0.00838 Bwk         low    group1     group3        group1  group4    
##  7    0.0335  Bwk         low    group1     group5        group7  group6    
##  8    0.0387  Bwk         low    group1     group5        group8  group10   
##  9    0.0882  Bsk         low    group1     group7        group10 group10   
## 10    0.0690  Bsk         low    group1     group7        group9  group10   
## # ℹ 703 more rows
…
